NVIDIA GeForce GT 640 	0FC0 	C
NVIDIA GeForce GT 640 	0FC1 	C
NVIDIA GeForce GT 630 	0FC2 	C
NVIDIA GeForce GTX 650 	0FC6 	D
NVIDIA GeForce GT 740 	0FC8 	D
NVIDIA GeForce GT 730 	0FC9 	C
NVIDIA GeForce GT 640M LE 	0FD2 1028 0595 	C
NVIDIA GeForce GT 640M LE 	0FD2 1028 05B2 	C
NVIDIA GeForce GT 745A 	0FE3 103C 2B16 	D
NVIDIA GeForce GT 745A 	0FE3 17AA 3675 	D
NVIDIA GeForce GTX TITAN Z 	1001 	D
NVIDIA GeForce GTX 780 	1004 	D
NVIDIA GeForce GTX TITAN 	1005 	D
NVIDIA GeForce GTX 780 	1007 	D
NVIDIA GeForce GTX 780 Ti 	1008 	D
NVIDIA GeForce GTX 780 Ti 	100A 	D
NVIDIA GeForce GTX TITAN Black 	100C 	D
NVIDIA GeForce GTX 680 	1180 	D
NVIDIA GeForce GTX 660 Ti 	1183 	D
NVIDIA GeForce GTX 770 	1184 	D
NVIDIA GeForce GTX 660 	1185 	D
NVIDIA GeForce GTX 760 	1185 10DE 106F 	D
NVIDIA GeForce GTX 760 	1187 	D
NVIDIA GeForce GTX 690 	1188 	D
NVIDIA GeForce GTX 670 	1189 	D
NVIDIA GeForce GTX 760 Ti OEM 	1189 10DE 1074 	D
NVIDIA GeForce GTX 760 (192-bit) 	118E 	D
NVIDIA GeForce GTX 760 Ti OEM 	1193 	D
NVIDIA GeForce GTX 660 	1195 	D
NVIDIA GeForce GTX 760 	1199 1458 D001 	D
NVIDIA GeForce GTX 660 	11C0 	D
NVIDIA GeForce GTX 650 Ti BOOST 	11C2 	D
NVIDIA GeForce GTX 650 Ti 	11C3 	D
NVIDIA GeForce GTX 645 	11C4 	D
NVIDIA GeForce GT 740 	11C5 	D
NVIDIA GeForce GTX 650 Ti 	11C6 	D
NVIDIA GeForce GTX 650 	11C8 	D
NVIDIA GeForce GT 740 	11CB 	D
NVIDIA GeForce GTX 760A 	11E3 17AA 3683 	D
NVIDIA GeForce GT 635 	1280 	D
NVIDIA GeForce GT 710 	1281 	D
NVIDIA GeForce GT 640 	1282 	C
NVIDIA GeForce GT 630 	1284 	C
NVIDIA GeForce GT 720 	1286 	D
NVIDIA GeForce GT 730 	1287 	C
NVIDIA GeForce GT 720 	1288 	D
NVIDIA GeForce GT 710 	1289 	D
NVIDIA GeForce GT 710 	128B 	D
NVIDIA GeForce 730A 	1290 103C 2AFA 	D
NVIDIA GeForce GT 740A 	1292 17AA 3675 	D
NVIDIA GeForce GT 740A 	1292 17AA 367C 	D
NVIDIA GeForce GT 740A 	1292 17AA 3684 	D
NVIDIA GeForce 710A 	1295 103C 2B0D 	C
NVIDIA GeForce 710A 	1295 103C 2B0F 	C
NVIDIA GeForce 810A 	1295 103C 2B20 	D
NVIDIA GeForce 810A 	1295 103C 2B21 	D
NVIDIA GeForce 805A 	1295 17AA 367A 	D
NVIDIA GeForce 710A 	1295 17AA 367C 	D
NVIDIA GeForce 920A 	1299 17AA 30BB 	D
NVIDIA GeForce 920A 	1299 17AA 30DA 	D
NVIDIA GeForce 920A 	1299 17AA 30DC 	D
NVIDIA GeForce 920A 	1299 17AA 30DD 	D
NVIDIA GeForce 920A 	1299 17AA 30DF 	D
NVIDIA GeForce 920A 	1299 17AA 3117 	D
NVIDIA GeForce 920A 	1299 17AA 361B 	D
NVIDIA GeForce 920A 	1299 17AA 362D 	D
NVIDIA GeForce 920A 	1299 17AA 362E 	D
NVIDIA GeForce 920A 	1299 17AA 3630 	D
NVIDIA GeForce 920A 	1299 17AA 3637 	D
NVIDIA GeForce 920A 	1299 17AA 369B 	D
NVIDIA GeForce 920A 	1299 17AA 36A7 	D
NVIDIA GeForce 920A 	1299 17AA 36AF 	D
NVIDIA GeForce 920A 	1299 17AA 36F0 	D
NVIDIA GeForce GT 730 	1299 1B0A 01C6 	C
NVIDIA GeForce 830M 	1340 	E
NVIDIA GeForce 830A 	1340 103C 2B2B 	E
NVIDIA GeForce 840M 	1341 	E
NVIDIA GeForce 840A 	1341 17AA 3697 	E
NVIDIA GeForce 840A 	1341 17AA 3699 	E
NVIDIA GeForce 840A 	1341 17AA 369C 	E
NVIDIA GeForce 840A 	1341 17AA 36AF 	E
NVIDIA GeForce 845M 	1344 	E
NVIDIA GeForce 930M 	1346 	E
NVIDIA GeForce 930A 	1346 17AA 30BA 	E
NVIDIA GeForce 930A 	1346 17AA 362C 	E
NVIDIA GeForce 930A 	1346 17AA 362F 	E
NVIDIA GeForce 930A 	1346 17AA 3636 	E
NVIDIA GeForce 940M 	1347 	E
NVIDIA GeForce 940A 	1347 17AA 36B9 	E
NVIDIA GeForce 940A 	1347 17AA 36BA 	E
NVIDIA GeForce 945M 	1348 	E
NVIDIA GeForce 945A 	1348 103C 2B5C 	E
NVIDIA GeForce 930M 	1349 	E
NVIDIA GeForce 930A 	1349 17AA 3124 	E
NVIDIA GeForce 930A 	1349 17AA 364B 	E
NVIDIA GeForce 930A 	1349 17AA 36C3 	E
NVIDIA GeForce 930A 	1349 17AA 36D1 	E
NVIDIA GeForce 930A 	1349 17AA 36D8 	E
NVIDIA GeForce 940MX 	134B 	E
NVIDIA GeForce GPU 	134B 1414 0008 	E
NVIDIA GeForce 940MX 	134D 	E
NVIDIA GeForce 930MX 	134E 	E
NVIDIA GeForce 920MX 	134F 	E
NVIDIA GeForce 940A 	137D 17AA 3699 	E
NVIDIA GeForce GTX 750 Ti 	1380 	E
NVIDIA GeForce GTX 750 	1381 	E
NVIDIA GeForce GTX 745 	1382 	E
NVIDIA GeForce 845M 	1390 	E
NVIDIA GeForce GTX 850M 	1391 	E
NVIDIA GeForce GTX 850A 	1391 17AA 3697 	E
NVIDIA GeForce GTX 860M 	1392 	D
NVIDIA GeForce GPU 	1392 1028 066A 	E
NVIDIA GeForce GTX 750 Ti 	1392 1043 861E 	E
NVIDIA GeForce GTX 750 Ti 	1392 1043 86D9 	E
NVIDIA GeForce 840M 	1393 	E
NVIDIA GeForce 845M 	1398 	E
NVIDIA GeForce 945M 	1399 	E
NVIDIA GeForce GTX 950M 	139A 	E
NVIDIA GeForce GTX 950A 	139A 17AA 362C 	E
NVIDIA GeForce GTX 950A 	139A 17AA 362F 	E
NVIDIA GeForce GTX 950A 	139A 17AA 363F 	E
NVIDIA GeForce GTX 950A 	139A 17AA 3640 	E
NVIDIA GeForce GTX 950A 	139A 17AA 3647 	E
NVIDIA GeForce GTX 950A 	139A 17AA 36B9 	E
NVIDIA GeForce GTX 960M 	139B 	E
NVIDIA GeForce GTX 750 Ti 	139B 1025 107A 	E
NVIDIA GeForce GTX 860M 	139B 1028 06A3 	D
NVIDIA GeForce GTX 960A 	139B 103C 2B4C 	E
NVIDIA GeForce GTX 750Ti 	139B 17AA 3649 	E
NVIDIA GeForce GTX 960A 	139B 17AA 36BF 	E
NVIDIA GeForce GTX 750 Ti 	139B 19DA C248 	E
NVIDIA GeForce GTX 750Ti 	139B 1AFA 8A75 	E
NVIDIA GeForce 940M 	139C 	E
NVIDIA GeForce GTX 750 Ti 	139D 	E
NVIDIA GeForce GTX 980 	13C0 	E
NVIDIA GeForce GTX 970 	13C2 	E
NVIDIA GeForce GTX 980M 	13D7 	E
NVIDIA GeForce GTX 970M 	13D8 	E
NVIDIA GeForce GTX 960 	13D8 1462 1198 	E
NVIDIA GeForce GTX 960 	13D8 1462 1199 	E
NVIDIA GeForce GTX 960 	13D8 19DA B282 	E
NVIDIA GeForce GTX 960 	13D8 19DA B284 	E
NVIDIA GeForce GTX 960 	13D8 19DA B286 	E
NVIDIA GeForce GTX 965M 	13D9 	E
NVIDIA GeForce GTX 980 	13DA 	E
NVIDIA GeForce GTX 960 	1401 	F
NVIDIA GeForce GTX 950 	1402 	F
NVIDIA GeForce GTX 960 	1406 	F
NVIDIA GeForce GTX 750 	1407 	E
NVIDIA GeForce GTX 965M 	1427 	E
NVIDIA GeForce GTX 950 	1427 1458 D003 	F
NVIDIA GeForce GTX 980M 	1617 	E
NVIDIA GeForce GTX 970M 	1618 	E
NVIDIA GeForce GTX 965M 	1619 	E
NVIDIA GeForce GTX 980 	161A 	E
NVIDIA GeForce GTX 965M 	1667 	E
NVIDIA GeForce MX130 	174D 	E
NVIDIA GeForce MX110 	174E 	E
NVIDIA GeForce 940MX 	179C 	E
NVIDIA GeForce GTX TITAN X 	17C2 	E
NVIDIA GeForce GTX 980 Ti 	17C8 	E
NVIDIA TITAN X (Pascal) 	1B00 	H
NVIDIA TITAN Xp 	1B02 	H
NVIDIA TITAN Xp COLLECTORS EDITION 	1B02 10DE 123E 	H
NVIDIA TITAN Xp COLLECTORS EDITION 	1B02 10DE 123F 	H
NVIDIA GeForce GTX 1080 Ti 	1B06 	H
NVIDIA GeForce GTX 1080 	1B80 	H 2
NVIDIA GeForce GTX 1070 	1B81 	H 2
NVIDIA GeForce GTX 1070 Ti 	1B82 	H 2
NVIDIA GeForce GTX 1060 6GB 	1B83 	H 2
NVIDIA GeForce GTX 1060 3GB 	1B84 	H 2
NVIDIA P104-100 	1B87 	H 2
NVIDIA GeForce GTX 1080 	1BA0 	H 2
NVIDIA GeForce GTX 1080 with Max-Q Design 	1BA0 1028 0887 	H 2
NVIDIA GeForce GTX 1070 	1BA1 	H 2
NVIDIA GeForce GTX 1070 with Max-Q Design 	1BA1 1028 08A1 	H 2
NVIDIA GeForce GTX 1070 with Max-Q Design 	1BA1 1028 08A2 	H 2
NVIDIA GeForce GTX 1070 with Max-Q Design 	1BA1 1043 1CCE 	H 2
NVIDIA GeForce GTX 1070 with Max-Q Design 	1BA1 1458 1651 	H 2
NVIDIA GeForce GTX 1070 with Max-Q Design 	1BA1 1458 1653 	H 2
NVIDIA GeForce GTX 1070 with Max-Q Design 	1BA1 1462 11E8 	H 2
NVIDIA GeForce GTX 1070 with Max-Q Design 	1BA1 1462 11E9 	H 2
NVIDIA GeForce GTX 1070 with Max-Q Design 	1BA1 1462 1225 	H 2
NVIDIA GeForce GTX 1070 with Max-Q Design 	1BA1 1462 1226 	H 2
NVIDIA GeForce GTX 1070 with Max-Q Design 	1BA1 1462 1227 	H 2
NVIDIA GeForce GTX 1070 with Max-Q Design 	1BA1 1558 9501 	H 2
NVIDIA GeForce GTX 1070 with Max-Q Design 	1BA1 1558 95E1 	H 2
NVIDIA GeForce GTX 1070 with Max-Q Design 	1BA1 1A58 2000 	H 2
NVIDIA GeForce GTX 1070 with Max-Q Design 	1BA1 1D05 1032 	H 2
NVIDIA GeForce GTX 1070 	1BA2 	H 2
NVIDIA P104-101 	1BC7 	H 2
NVIDIA GeForce GTX 1080 	1BE0 	H 2
NVIDIA GeForce GTX 1080 with Max-Q Design 	1BE0 1025 1221 	H 2
NVIDIA GeForce GTX 1080 with Max-Q Design 	1BE0 1025 123E 	H 2
NVIDIA GeForce GTX 1080 with Max-Q Design 	1BE0 1028 07C0 	H 2
NVIDIA GeForce GTX 1080 with Max-Q Design 	1BE0 1028 0876 	H 2
NVIDIA GeForce GTX 1080 with Max-Q Design 	1BE0 1028 088B 	H 2
NVIDIA GeForce GTX 1080 with Max-Q Design 	1BE0 1043 1031 	H 2
NVIDIA GeForce GTX 1080 with Max-Q Design 	1BE0 1043 1BF0 	H 2
NVIDIA GeForce GTX 1080 with Max-Q Design 	1BE0 1458 355B 	H 2
NVIDIA GeForce GTX 1070 	1BE1 	H 2
NVIDIA GeForce GTX 1070 with Max-Q Design 	1BE1 103C 84DB 	H 2
NVIDIA GeForce GTX 1070 with Max-Q Design 	1BE1 1043 16F0 	H 2
NVIDIA GeForce GTX 1070 with Max-Q Design 	1BE1 3842 2009 	H 2
NVIDIA GeForce GTX 1060 3GB 	1C02 	H 2
NVIDIA GeForce GTX 1060 6GB 	1C03 	H 2
NVIDIA GeForce GTX 1060 5GB 	1C04 	H
NVIDIA GeForce GTX 1060 6GB 	1C06 	H 2
NVIDIA P106-100 	1C07 	H
NVIDIA P106-090 	1C09 	H
NVIDIA GeForce GTX 1060 	1C20 	H
NVIDIA GeForce GTX 1060 with Max-Q Design 	1C20 1028 0802 	H
NVIDIA GeForce GTX 1060 with Max-Q Design 	1C20 1028 0803 	H
NVIDIA GeForce GTX 1060 with Max-Q Design 	1C20 1028 0825 	H
NVIDIA GeForce GTX 1060 with Max-Q Design 	1C20 1028 0827 	H
NVIDIA GeForce GTX 1060 with Max-Q Design 	1C20 1028 0885 	H
NVIDIA GeForce GTX 1060 with Max-Q Design 	1C20 1028 0886 	H
NVIDIA GeForce GTX 1060 with Max-Q Design 	1C20 103C 8467 	H
NVIDIA GeForce GTX 1060 with Max-Q Design 	1C20 103C 8478 	H
NVIDIA GeForce GTX 1060 with Max-Q Design 	1C20 103C 8581 	H
NVIDIA GeForce GTX 1060 with Max-Q Design 	1C20 1462 1244 	H
NVIDIA GeForce GTX 1060 with Max-Q Design 	1C20 1558 95E5 	H
NVIDIA GeForce GTX 1060 with Max-Q Design 	1C20 17AA 39B9 	H
NVIDIA GeForce GTX 1060 with Max-Q Design 	1C20 1A58 2000 	H
NVIDIA GeForce GTX 1060 with Max-Q Design 	1C20 1A58 2001 	H
NVIDIA GeForce GTX 1060 with Max-Q Design 	1C20 1D05 1059 	H
NVIDIA GeForce GTX 1050 Ti 	1C21 	H
NVIDIA GeForce GTX 1050 	1C22 	H
NVIDIA GeForce GTX 1060 	1C23 	H
NVIDIA GeForce GTX 1060 	1C60 	H
NVIDIA GeForce GTX 1060 with Max-Q Design 	1C60 103C 8390 	H
NVIDIA GeForce GTX 1060 with Max-Q Design 	1C60 103C 8467 	H
NVIDIA GeForce GTX 1050 Ti 	1C61 	H
NVIDIA GeForce GTX 1050 	1C62 	H
NVIDIA GeForce GTX 1050 	1C81 	H
NVIDIA GeForce GTX 1050 Ti 	1C82 	H
NVIDIA GeForce GTX 1050 	1C83 	H
NVIDIA GeForce GTX 1050 Ti 	1C8C 	H
NVIDIA GeForce GTX 1050 Ti with Max-Q Design 	1C8C 1028 087C 	H
NVIDIA GeForce GTX 1050 Ti with Max-Q Design 	1C8C 103C 8519 	H
NVIDIA GeForce GTX 1050 Ti with Max-Q Design 	1C8C 103C 856A 	H
NVIDIA GeForce GTX 1050 Ti with Max-Q Design 	1C8C 1462 123C 	H
NVIDIA GeForce GTX 1050 Ti with Max-Q Design 	1C8C 1462 126C 	H
NVIDIA GeForce GTX 1050 Ti with Max-Q Design 	1C8C 17AA 2266 	H
NVIDIA GeForce GTX 1050 Ti with Max-Q Design 	1C8C 17AA 2267 	H
NVIDIA GeForce GTX 1050 Ti with Max-Q Design 	1C8C 17AA 39FF 	H
NVIDIA GeForce GTX 1050 	1C8D 	H
NVIDIA GeForce GTX 1050 with Max-Q Design 	1C8D 103C 84E9 	H
NVIDIA GeForce GTX 1050 with Max-Q Design 	1C8D 103C 84EB 	H
NVIDIA GeForce GTX 1050 with Max-Q Design 	1C8D 103C 856A 	H
NVIDIA GeForce GTX 1050 with Max-Q Design 	1C8D 1043 114F 	H
NVIDIA GeForce GTX 1050 with Max-Q Design 	1C8D 1043 1341 	H
NVIDIA GeForce GTX 1050 with Max-Q Design 	1C8D 1043 1351 	H
NVIDIA GeForce GTX 1050 with Max-Q Design 	1C8D 1043 1481 	H
NVIDIA GeForce GTX 1050 with Max-Q Design 	1C8D 1043 14A1 	H
NVIDIA GeForce GTX 1050 with Max-Q Design 	1C8D 1043 18C1 	H
NVIDIA GeForce GTX 1050 with Max-Q Design 	1C8D 1043 1B5E 	H
NVIDIA GeForce GTX 1050 with Max-Q Design 	1C8D 1462 126C 	H
NVIDIA GeForce GTX 1050 with Max-Q Design 	1C8D 152D 1217 	H
NVIDIA GeForce GTX 1050 with Max-Q Design 	1C8D 1D72 1707 	H
NVIDIA GeForce GTX 1050 Ti 	1C8F 	H
NVIDIA GeForce GTX 1050 Ti with Max-Q Design 	1C8F 1462 123C 	H
NVIDIA GeForce GTX 1050 Ti with Max-Q Design 	1C8F 1462 126C 	H
NVIDIA GeForce GTX 1050 Ti with Max-Q Design 	1C8F 1462 126D 	H
NVIDIA GeForce GTX 1050 Ti with Max-Q Design 	1C8F 1462 1284 	H
NVIDIA GeForce GTX 1050 Ti with Max-Q Design 	1C8F 1462 1297 	H
NVIDIA GeForce MX150 	1C90 	H
NVIDIA GeForce MX250 	1C90 1028 09C1 	H
NVIDIA GeForce GTX 1050 	1C91 	H
NVIDIA GeForce GTX 1050 with Max-Q Design 	1C91 103C 856A 	H
NVIDIA GeForce GTX 1050 with Max-Q Design 	1C91 103C 86E3 	H
NVIDIA GeForce GTX 1050 with Max-Q Design 	1C91 152D 1232 	H
NVIDIA GeForce GTX 1050 	1C92 	H
NVIDIA GeForce GTX 1050 with Max-Q Design 	1C92 1043 149F 	H
NVIDIA GeForce GTX 1050 with Max-Q Design 	1C92 1043 1B31 	H
NVIDIA GeForce GTX 1050 with Max-Q Design 	1C92 1462 1245 	H
NVIDIA GeForce GTX 1050 with Max-Q Design 	1C92 1462 126C 	H
NVIDIA GeForce MX350 	1C94 	H
NVIDIA GeForce MX350 	1C96 	H
NVIDIA GeForce GT 1030 	1D01 	H
NVIDIA GeForce GT 1010 	1D02 	H
NVIDIA GeForce MX150 	1D10 	H
NVIDIA GeForce MX230 	1D11 	H
NVIDIA GeForce MX150 	1D12 	H
NVIDIA GeForce MX250 	1D13 	H
NVIDIA GeForce MX330 	1D16 	H
NVIDIA GeForce MX250 	1D52 	H
NVIDIA TITAN V 	1D81 	I
NVIDIA TITAN V JHH Special Edition 	1DBA 10DE 12EB 	I
NVIDIA TITAN RTX 	1E02 	J
NVIDIA GeForce RTX 2080 Ti 	1E04 	J
NVIDIA GeForce RTX 2080 Ti 	1E07 	J
NVIDIA CMP 50HX 	1E09 	-
NVIDIA GeForce RTX 2080 SUPER 	1E81 	J
NVIDIA GeForce RTX 2080 	1E82 	J
NVIDIA GeForce RTX 2070 SUPER 	1E84 	J
NVIDIA GeForce RTX 2080 	1E87 	J
NVIDIA GeForce RTX 2060 	1E89 	J
NVIDIA GeForce RTX 2080 	1E90 	J
NVIDIA GeForce RTX 2080 with Max-Q Design 	1E90 1025 1375 	J
NVIDIA GeForce RTX 2080 with Max-Q Design 	1E90 1028 08A1 	J
NVIDIA GeForce RTX 2080 with Max-Q Design 	1E90 1028 08A2 	J
NVIDIA GeForce RTX 2080 with Max-Q Design 	1E90 1028 08EA 	J
NVIDIA GeForce RTX 2080 with Max-Q Design 	1E90 1028 08EB 	J
NVIDIA GeForce RTX 2080 with Max-Q Design 	1E90 1028 08EC 	J
NVIDIA GeForce RTX 2080 with Max-Q Design 	1E90 1028 08ED 	J
NVIDIA GeForce RTX 2080 with Max-Q Design 	1E90 1028 08EE 	J
NVIDIA GeForce RTX 2080 with Max-Q Design 	1E90 1028 08EF 	J
NVIDIA GeForce RTX 2080 with Max-Q Design 	1E90 1028 093B 	J
NVIDIA GeForce RTX 2080 with Max-Q Design 	1E90 1028 093C 	J
NVIDIA GeForce RTX 2080 with Max-Q Design 	1E90 103C 8572 	J
NVIDIA GeForce RTX 2080 with Max-Q Design 	1E90 103C 8573 	J
NVIDIA GeForce RTX 2080 with Max-Q Design 	1E90 103C 8602 	J
NVIDIA GeForce RTX 2080 with Max-Q Design 	1E90 103C 8606 	J
NVIDIA GeForce RTX 2080 with Max-Q Design 	1E90 103C 86C6 	J
NVIDIA GeForce RTX 2080 with Max-Q Design 	1E90 103C 86C7 	J
NVIDIA GeForce RTX 2080 with Max-Q Design 	1E90 103C 87A6 	J
NVIDIA GeForce RTX 2080 with Max-Q Design 	1E90 103C 87A7 	J
NVIDIA GeForce RTX 2080 with Max-Q Design 	1E90 1043 131F 	J
NVIDIA GeForce RTX 2080 with Max-Q Design 	1E90 1043 137F 	J
NVIDIA GeForce RTX 2080 with Max-Q Design 	1E90 1043 141F 	J
NVIDIA GeForce RTX 2080 with Max-Q Design 	1E90 1043 1751 	J
NVIDIA GeForce RTX 2080 with Max-Q Design 	1E90 1458 1660 	J
NVIDIA GeForce RTX 2080 with Max-Q Design 	1E90 1458 1661 	J
NVIDIA GeForce RTX 2080 with Max-Q Design 	1E90 1458 1662 	J
NVIDIA GeForce RTX 2080 with Max-Q Design 	1E90 1458 75A6 	J
NVIDIA GeForce RTX 2080 with Max-Q Design 	1E90 1458 75A7 	J
NVIDIA GeForce RTX 2080 with Max-Q Design 	1E90 1458 86A6 	J
NVIDIA GeForce RTX 2080 with Max-Q Design 	1E90 1458 86A7 	J
NVIDIA GeForce RTX 2080 with Max-Q Design 	1E90 1462 1274 	J
NVIDIA GeForce RTX 2080 with Max-Q Design 	1E90 1462 1277 	J
NVIDIA GeForce RTX 2080 with Max-Q Design 	1E90 152D 1220 	J
NVIDIA GeForce RTX 2080 with Max-Q Design 	1E90 1558 95E1 	J
NVIDIA GeForce RTX 2080 with Max-Q Design 	1E90 1558 97E1 	J
NVIDIA GeForce RTX 2080 with Max-Q Design 	1E90 1A58 2002 	J
NVIDIA GeForce RTX 2080 with Max-Q Design 	1E90 1A58 2005 	J
NVIDIA GeForce RTX 2080 with Max-Q Design 	1E90 1A58 2007 	J
NVIDIA GeForce RTX 2080 with Max-Q Design 	1E90 1A58 3000 	J
NVIDIA GeForce RTX 2080 with Max-Q Design 	1E90 1A58 3001 	J
NVIDIA GeForce RTX 2080 with Max-Q Design 	1E90 1D05 1069 	J
NVIDIA GeForce RTX 2070 Super 	1E91 	J
NVIDIA GeForce RTX 2080 Super 	1E93 	J
NVIDIA GeForce RTX 2070 SUPER 	1EC2 	J
NVIDIA GeForce RTX 2070 SUPER 	1EC7 	J
NVIDIA GeForce RTX 2080 	1ED0 	J
NVIDIA GeForce RTX 2080 with Max-Q Design 	1ED0 1025 132D 	J
NVIDIA GeForce RTX 2080 with Max-Q Design 	1ED0 1028 08ED 	J
NVIDIA GeForce RTX 2080 with Max-Q Design 	1ED0 1028 08EE 	J
NVIDIA GeForce RTX 2080 with Max-Q Design 	1ED0 1028 08EF 	J
NVIDIA GeForce RTX 2080 with Max-Q Design 	1ED0 103C 8572 	J
NVIDIA GeForce RTX 2080 with Max-Q Design 	1ED0 103C 8573 	J
NVIDIA GeForce RTX 2080 with Max-Q Design 	1ED0 103C 8600 	J
NVIDIA GeForce RTX 2080 with Max-Q Design 	1ED0 103C 8605 	J
NVIDIA GeForce RTX 2080 with Max-Q Design 	1ED0 1043 138F 	J
NVIDIA GeForce RTX 2080 with Max-Q Design 	1ED0 1043 15C1 	J
NVIDIA GeForce RTX 2080 with Max-Q Design 	1ED0 17AA 3FEE 	J
NVIDIA GeForce RTX 2080 with Max-Q Design 	1ED0 17AA 3FFE 	J
NVIDIA GeForce RTX 2070 Super 	1ED1 	J
NVIDIA GeForce RTX 2080 Super 	1ED3 	J
NVIDIA GeForce RTX 2070 	1F02 	J
NVIDIA GeForce RTX 2060 	1F03 	J
NVIDIA GeForce RTX 2060 SUPER 	1F06 	J
NVIDIA GeForce RTX 2070 	1F07 	J
NVIDIA GeForce RTX 2060 	1F08 	J
NVIDIA Graphics Device 	1F09 	J
NVIDIA GeForce GTX 1650 	1F0A 	J
NVIDIA CMP 40HX 	1F0B 	-
NVIDIA GeForce RTX 2070 	1F10 	J
NVIDIA GeForce RTX 2070 with Max-Q Design 	1F10 1025 132D 	J
NVIDIA GeForce RTX 2070 with Max-Q Design 	1F10 1025 1342 	J
NVIDIA GeForce RTX 2070 with Max-Q Design 	1F10 1028 08A1 	J
NVIDIA GeForce RTX 2070 with Max-Q Design 	1F10 1028 08A2 	J
NVIDIA GeForce RTX 2070 with Max-Q Design 	1F10 1028 08EA 	J
NVIDIA GeForce RTX 2070 with Max-Q Design 	1F10 1028 08EB 	J
NVIDIA GeForce RTX 2070 with Max-Q Design 	1F10 1028 08EC 	J
NVIDIA GeForce RTX 2070 with Max-Q Design 	1F10 1028 08ED 	J
NVIDIA GeForce RTX 2070 with Max-Q Design 	1F10 1028 08EE 	J
NVIDIA GeForce RTX 2070 with Max-Q Design 	1F10 1028 08EF 	J
NVIDIA GeForce RTX 2070 with Max-Q Design 	1F10 1028 093B 	J
NVIDIA GeForce RTX 2070 with Max-Q Design 	1F10 1028 093C 	J
NVIDIA GeForce RTX 2070 with Max-Q Design 	1F10 103C 8572 	J
NVIDIA GeForce RTX 2070 with Max-Q Design 	1F10 103C 8573 	J
NVIDIA GeForce RTX 2070 with Max-Q Design 	1F10 103C 8602 	J
NVIDIA GeForce RTX 2070 with Max-Q Design 	1F10 103C 8606 	J
NVIDIA GeForce RTX 2070 with Max-Q Design 	1F10 1043 132F 	J
NVIDIA GeForce RTX 2070 with Max-Q Design 	1F10 1043 136F 	J
NVIDIA GeForce RTX 2070 with Max-Q Design 	1F10 1043 1881 	J
NVIDIA GeForce RTX 2070 with Max-Q Design 	1F10 1043 1E6E 	J
NVIDIA GeForce RTX 2070 with Max-Q Design 	1F10 1458 1658 	J
NVIDIA GeForce RTX 2070 with Max-Q Design 	1F10 1458 1663 	J
NVIDIA GeForce RTX 2070 with Max-Q Design 	1F10 1458 1664 	J
NVIDIA GeForce RTX 2070 with Max-Q Design 	1F10 1458 75A4 	J
NVIDIA GeForce RTX 2070 with Max-Q Design 	1F10 1458 75A5 	J
NVIDIA GeForce RTX 2070 with Max-Q Design 	1F10 1458 86A4 	J
NVIDIA GeForce RTX 2070 with Max-Q Design 	1F10 1458 86A5 	J
NVIDIA GeForce RTX 2070 with Max-Q Design 	1F10 1462 1274 	J
NVIDIA GeForce RTX 2070 with Max-Q Design 	1F10 1462 1277 	J
NVIDIA GeForce RTX 2070 with Max-Q Design 	1F10 1558 95E1 	J
NVIDIA GeForce RTX 2070 with Max-Q Design 	1F10 1558 97E1 	J
NVIDIA GeForce RTX 2070 with Max-Q Design 	1F10 1A58 2002 	J
NVIDIA GeForce RTX 2070 with Max-Q Design 	1F10 1A58 2005 	J
NVIDIA GeForce RTX 2070 with Max-Q Design 	1F10 1A58 2007 	J
NVIDIA GeForce RTX 2070 with Max-Q Design 	1F10 1A58 3000 	J
NVIDIA GeForce RTX 2070 with Max-Q Design 	1F10 1A58 3001 	J
NVIDIA GeForce RTX 2070 with Max-Q Design 	1F10 1D05 105E 	J
NVIDIA GeForce RTX 2070 with Max-Q Design 	1F10 1D05 1070 	J
NVIDIA GeForce RTX 2070 with Max-Q Design 	1F10 1D05 2087 	J
NVIDIA GeForce RTX 2070 with Max-Q Design 	1F10 8086 2087 	J
NVIDIA GeForce RTX 2060 	1F11 	J
NVIDIA GeForce RTX 2060 	1F12 	J
NVIDIA GeForce RTX 2060 with Max-Q Design 	1F12 1028 098F 	J
NVIDIA GeForce RTX 2060 with Max-Q Design 	1F12 103C 8741 	J
NVIDIA GeForce RTX 2060 with Max-Q Design 	1F12 103C 8744 	J
NVIDIA GeForce RTX 2060 with Max-Q Design 	1F12 103C 878E 	J
NVIDIA GeForce RTX 2060 with Max-Q Design 	1F12 103C 880E 	J
NVIDIA GeForce RTX 2060 with Max-Q Design 	1F12 1043 1E11 	J
NVIDIA GeForce RTX 2060 with Max-Q Design 	1F12 1043 1F11 	J
NVIDIA GeForce RTX 2060 with Max-Q Design 	1F12 1414 0032 	J
NVIDIA GeForce RTX 2060 with Max-Q Design 	1F12 1462 12D9 	J
NVIDIA GeForce RTX 2060 with Max-Q Design 	1F12 17AA 3801 	J
NVIDIA GeForce RTX 2060 with Max-Q Design 	1F12 17AA 3802 	J
NVIDIA GeForce RTX 2060 with Max-Q Design 	1F12 17AA 3803 	J
NVIDIA GeForce RTX 2070 	1F14 	J
NVIDIA GeForce RTX 2070 with Max-Q Design 	1F14 1025 1401 	J
NVIDIA GeForce RTX 2070 with Max-Q Design 	1F14 1025 1432 	J
NVIDIA GeForce RTX 2070 with Max-Q Design 	1F14 1025 1442 	J
NVIDIA GeForce RTX 2070 with Max-Q Design 	1F14 1025 1446 	J
NVIDIA GeForce RTX 2070 with Max-Q Design 	1F14 1025 147D 	J
NVIDIA GeForce RTX 2070 with Max-Q Design 	1F14 1028 09E2 	J
NVIDIA GeForce RTX 2070 with Max-Q Design 	1F14 1028 09F3 	J
NVIDIA GeForce RTX 2070 with Max-Q Design 	1F14 103C 8607 	J
NVIDIA GeForce RTX 2070 with Max-Q Design 	1F14 103C 86C6 	J
NVIDIA GeForce RTX 2070 with Max-Q Design 	1F14 103C 86C7 	J
NVIDIA GeForce RTX 2070 with Max-Q Design 	1F14 103C 8736 	J
NVIDIA GeForce RTX 2070 with Max-Q Design 	1F14 103C 8738 	J
NVIDIA GeForce RTX 2070 with Max-Q Design 	1F14 103C 8746 	J
NVIDIA GeForce RTX 2070 with Max-Q Design 	1F14 103C 8772 	J
NVIDIA GeForce RTX 2070 with Max-Q Design 	1F14 103C 878A 	J
NVIDIA GeForce RTX 2070 with Max-Q Design 	1F14 103C 878B 	J
NVIDIA GeForce RTX 2070 with Max-Q Design 	1F14 103C 87A6 	J
NVIDIA GeForce RTX 2070 with Max-Q Design 	1F14 103C 87A7 	J
NVIDIA GeForce RTX 2070 with Max-Q Design 	1F14 1043 174F 	J
NVIDIA GeForce RTX 2070 with Max-Q Design 	1F14 1458 1512 	J
NVIDIA GeForce RTX 2070 with Max-Q Design 	1F14 1458 75B5 	J
NVIDIA GeForce RTX 2070 with Max-Q Design 	1F14 1458 75B6 	J
NVIDIA GeForce RTX 2070 with Max-Q Design 	1F14 1458 76B4 	J
NVIDIA GeForce RTX 2070 with Max-Q Design 	1F14 1458 76B5 	J
NVIDIA GeForce RTX 2070 with Max-Q Design 	1F14 1458 78A4 	J
NVIDIA GeForce RTX 2070 with Max-Q Design 	1F14 1458 78A5 	J
NVIDIA GeForce RTX 2070 with Max-Q Design 	1F14 1458 86B4 	J
NVIDIA GeForce RTX 2070 with Max-Q Design 	1F14 1458 86B5 	J
NVIDIA GeForce RTX 2070 with Max-Q Design 	1F14 1462 12AE 	J
NVIDIA GeForce RTX 2070 with Max-Q Design 	1F14 1462 12B0 	J
NVIDIA GeForce RTX 2070 with Max-Q Design 	1F14 1462 12C6 	J
NVIDIA GeForce RTX 2070 with Max-Q Design 	1F14 1558 50D3 	J
NVIDIA GeForce RTX 2070 with Max-Q Design 	1F14 1558 70D1 	J
NVIDIA GeForce RTX 2070 with Max-Q Design 	1F14 1A58 200C 	J
NVIDIA GeForce RTX 2070 with Max-Q Design 	1F14 1A58 2011 	J
NVIDIA GeForce RTX 2070 with Max-Q Design 	1F14 1A58 3002 	J
NVIDIA GeForce RTX 2060 	1F15 	J
NVIDIA GeForce RTX 2060 SUPER 	1F42 	J
NVIDIA GeForce RTX 2060 SUPER 	1F47 	J
NVIDIA GeForce RTX 2070 	1F50 	J
NVIDIA GeForce RTX 2070 with Max-Q Design 	1F50 1028 08ED 	J
NVIDIA GeForce RTX 2070 with Max-Q Design 	1F50 1028 08EE 	J
NVIDIA GeForce RTX 2070 with Max-Q Design 	1F50 1028 08EF 	J
NVIDIA GeForce RTX 2070 with Max-Q Design 	1F50 103C 8572 	J
NVIDIA GeForce RTX 2070 with Max-Q Design 	1F50 103C 8573 	J
NVIDIA GeForce RTX 2070 with Max-Q Design 	1F50 103C 8574 	J
NVIDIA GeForce RTX 2070 with Max-Q Design 	1F50 103C 8600 	J
NVIDIA GeForce RTX 2070 with Max-Q Design 	1F50 103C 8605 	J
NVIDIA GeForce RTX 2070 with Max-Q Design 	1F50 17AA 3FEE 	J
NVIDIA GeForce RTX 2070 with Max-Q Design 	1F50 17AA 3FFE 	J
NVIDIA GeForce RTX 2060 	1F51 	J
NVIDIA GeForce RTX 2070 	1F54 	J
NVIDIA GeForce RTX 2070 with Max-Q Design 	1F54 103C 878A 	J
NVIDIA GeForce RTX 2070 with Max-Q Design 	1F54 17AA 3FCE 	J
NVIDIA GeForce RTX 2070 with Max-Q Design 	1F54 17AA 3FCF 	J
NVIDIA GeForce RTX 2070 with Max-Q Design 	1F54 17AA 3FD0 	J
NVIDIA GeForce RTX 2060 	1F55 	J
NVIDIA GeForce GTX 1650 	1F82 	J
NVIDIA GeForce GTX 1650 	1F91 	J
NVIDIA GeForce GTX 1650 with Max-Q Design 	1F91 103C 863E 	J
NVIDIA GeForce GTX 1650 with Max-Q Design 	1F91 103C 86E7 	J
NVIDIA GeForce GTX 1650 with Max-Q Design 	1F91 103C 86E8 	J
NVIDIA GeForce GTX 1650 with Max-Q Design 	1F91 1043 12CF 	J
NVIDIA GeForce GTX 1650 with Max-Q Design 	1F91 1043 156F 	J
NVIDIA GeForce GTX 1650 with Max-Q Design 	1F91 1414 0032 	J
NVIDIA GeForce GTX 1650 with Max-Q Design 	1F91 144D C822 	J
NVIDIA GeForce GTX 1650 with Max-Q Design 	1F91 1462 127E 	J
NVIDIA GeForce GTX 1650 with Max-Q Design 	1F91 1462 1281 	J
NVIDIA GeForce GTX 1650 with Max-Q Design 	1F91 1462 1284 	J
NVIDIA GeForce GTX 1650 with Max-Q Design 	1F91 1462 1285 	J
NVIDIA GeForce GTX 1650 with Max-Q Design 	1F91 1462 129C 	J
NVIDIA GeForce GTX 1650 with Max-Q Design 	1F91 17AA 229F 	J
NVIDIA GeForce GTX 1650 with Max-Q Design 	1F91 17AA 3802 	J
NVIDIA GeForce GTX 1650 with Max-Q Design 	1F91 17AA 3806 	J
NVIDIA GeForce GTX 1650 with Max-Q Design 	1F91 17AA 3F1A 	J
NVIDIA GeForce GTX 1650 with Max-Q Design 	1F91 1A58 1001 	J
NVIDIA GeForce GTX 1650 Ti 	1F95 	J
NVIDIA GeForce GTX 1650 Ti with Max-Q Design 	1F95 1025 1479 	J
NVIDIA GeForce GTX 1650 Ti with Max-Q Design 	1F95 1025 147A 	J
NVIDIA GeForce GTX 1650 Ti with Max-Q Design 	1F95 1025 147B 	J
NVIDIA GeForce GTX 1650 Ti with Max-Q Design 	1F95 1025 147C 	J
NVIDIA GeForce GTX 1650 Ti with Max-Q Design 	1F95 103C 86E7 	J
NVIDIA GeForce GTX 1650 Ti with Max-Q Design 	1F95 103C 86E8 	J
NVIDIA GeForce GTX 1650 Ti with Max-Q Design 	1F95 103C 8815 	J
NVIDIA GeForce GTX 1650 Ti with Max-Q Design 	1F95 1043 1DFF 	J
NVIDIA GeForce GTX 1650 Ti with Max-Q Design 	1F95 1043 1E1F 	J
NVIDIA GeForce GTX 1650 Ti with Max-Q Design 	1F95 144D C838 	J
NVIDIA GeForce GTX 1650 Ti with Max-Q Design 	1F95 1462 12BD 	J
NVIDIA GeForce GTX 1650 Ti with Max-Q Design 	1F95 1462 12C5 	J
NVIDIA GeForce GTX 1650 Ti with Max-Q Design 	1F95 1462 12D2 	J
NVIDIA GeForce GTX 1650 Ti with Max-Q Design 	1F95 17AA 22C0 	J
NVIDIA GeForce GTX 1650 Ti with Max-Q Design 	1F95 17AA 22C1 	J
NVIDIA GeForce GTX 1650 Ti with Max-Q Design 	1F95 17AA 3837 	J
NVIDIA GeForce GTX 1650 Ti with Max-Q Design 	1F95 17AA 3F95 	J
NVIDIA GeForce GTX 1650 Ti with Max-Q Design 	1F95 1A58 1003 	J
NVIDIA GeForce GTX 1650 Ti with Max-Q Design 	1F95 1A58 1006 	J
NVIDIA GeForce GTX 1650 Ti with Max-Q Design 	1F95 1A58 1007 	J
NVIDIA GeForce GTX 1650 Ti with Max-Q Design 	1F95 1E83 3E30 	J
NVIDIA GeForce GTX 1650 	1F96 	J
NVIDIA GeForce GTX 1650 with Max-Q Design 	1F96 1462 1297 	J
NVIDIA GeForce MX450 	1F97 	J
NVIDIA GeForce MX450 	1F98 	J
NVIDIA GeForce GTX 1650 	1F99 	J
NVIDIA GeForce GTX 1650 with Max-Q Design 	1F99 1025 1479 	J
NVIDIA GeForce GTX 1650 with Max-Q Design 	1F99 1025 147A 	J
NVIDIA GeForce GTX 1650 with Max-Q Design 	1F99 1025 147B 	J
NVIDIA GeForce GTX 1650 with Max-Q Design 	1F99 1025 147C 	J
NVIDIA GeForce GTX 1650 with Max-Q Design 	1F99 103C 8815 	J
NVIDIA GeForce GTX 1650 with Max-Q Design 	1F99 1043 13B2 	J
NVIDIA GeForce GTX 1650 with Max-Q Design 	1F99 1043 1402 	J
NVIDIA GeForce GTX 1650 with Max-Q Design 	1F99 1043 1902 	J
NVIDIA GeForce GTX 1650 with Max-Q Design 	1F99 1462 12BD 	J
NVIDIA GeForce GTX 1650 with Max-Q Design 	1F99 1462 12C5 	J
NVIDIA GeForce GTX 1650 with Max-Q Design 	1F99 1462 12D2 	J
NVIDIA GeForce GTX 1650 with Max-Q Design 	1F99 17AA 22DA 	J
NVIDIA GeForce GTX 1650 with Max-Q Design 	1F99 17AA 3F93 	J
NVIDIA GeForce GTX 1650 with Max-Q Design 	1F99 1E83 3E30 	J
NVIDIA GeForce MX450 	1F9C 	J
NVIDIA GeForce GTX 1650 	1F9D 	J
NVIDIA GeForce GTX 1650 with Max-Q Design 	1F9D 1043 128D 	J
NVIDIA GeForce GTX 1650 with Max-Q Design 	1F9D 1043 130D 	J
NVIDIA GeForce GTX 1650 with Max-Q Design 	1F9D 1043 149C 	J
NVIDIA GeForce GTX 1650 with Max-Q Design 	1F9D 1043 185C 	J
NVIDIA GeForce GTX 1650 with Max-Q Design 	1F9D 1043 189C 	J
NVIDIA GeForce GTX 1650 with Max-Q Design 	1F9D 1462 12F4 	J
NVIDIA GeForce GTX 1650 with Max-Q Design 	1F9D 1462 1302 	J
NVIDIA GeForce GTX 1650 with Max-Q Design 	1F9D 1462 131B 	J
NVIDIA GeForce GTX 1650 with Max-Q Design 	1F9D 1462 1326 	J
NVIDIA GeForce GTX 1650 with Max-Q Design 	1F9D 1462 132A 	J
NVIDIA GeForce GTX 1650 with Max-Q Design 	1F9D 1462 132E 	J
NVIDIA GeForce MX550 	1F9F 	J
NVIDIA GeForce MX550 	1FA0 	J
NVIDIA GeForce GTX 1650 	1FDD 	J
NVIDIA GeForce GTX 1660 Ti 	2182 	J
NVIDIA GeForce GTX 1660 	2184 	J
NVIDIA GeForce GTX 1650 SUPER 	2187 	J
NVIDIA GeForce GTX 1650 	2188 	J
NVIDIA CMP 30HX 	2189 	-
NVIDIA GeForce GTX 1660 Ti 	2191 	J
NVIDIA GeForce GTX 1660 Ti with Max-Q Design 	2191 1028 0949 	J
NVIDIA GeForce GTX 1660 Ti with Max-Q Design 	2191 103C 85FB 	J
NVIDIA GeForce GTX 1660 Ti with Max-Q Design 	2191 103C 85FE 	J
NVIDIA GeForce GTX 1660 Ti with Max-Q Design 	2191 103C 86D6 	J
NVIDIA GeForce GTX 1660 Ti with Max-Q Design 	2191 103C 8741 	J
NVIDIA GeForce GTX 1660 Ti with Max-Q Design 	2191 103C 8744 	J
NVIDIA GeForce GTX 1660 Ti with Max-Q Design 	2191 103C 878D 	J
NVIDIA GeForce GTX 1660 Ti with Max-Q Design 	2191 103C 87AF 	J
NVIDIA GeForce GTX 1660 Ti with Max-Q Design 	2191 103C 87B3 	J
NVIDIA GeForce GTX 1660 Ti with Max-Q Design 	2191 1043 171F 	J
NVIDIA GeForce GTX 1660 Ti with Max-Q Design 	2191 1043 17EF 	J
NVIDIA GeForce GTX 1660 Ti with Max-Q Design 	2191 1043 18D1 	J
NVIDIA GeForce GTX 1660 Ti with Max-Q Design 	2191 1414 0032 	J
NVIDIA GeForce GTX 1660 Ti with Max-Q Design 	2191 1462 128A 	J
NVIDIA GeForce GTX 1660 Ti with Max-Q Design 	2191 1462 128B 	J
NVIDIA GeForce GTX 1660 Ti with Max-Q Design 	2191 1462 12C6 	J
NVIDIA GeForce GTX 1660 Ti with Max-Q Design 	2191 1462 12CB 	J
NVIDIA GeForce GTX 1660 Ti with Max-Q Design 	2191 1462 12CC 	J
NVIDIA GeForce GTX 1660 Ti with Max-Q Design 	2191 1462 12D9 	J
NVIDIA GeForce GTX 1660 Ti with Max-Q Design 	2191 17AA 380C 	J
NVIDIA GeForce GTX 1660 Ti with Max-Q Design 	2191 17AA 381D 	J
NVIDIA GeForce GTX 1660 Ti with Max-Q Design 	2191 17AA 381E 	J
NVIDIA GeForce GTX 1650 Ti 	2192 	J
NVIDIA GeForce GTX 1660 SUPER 	21C4 	J
NVIDIA GeForce GTX 1660 Ti 	21D1 	J
NVIDIA GeForce RTX 3090 Ti 	2203 	J
NVIDIA GeForce RTX 3090 	2204 	K
NVIDIA GeForce RTX 3080 	2206 	K
NVIDIA GeForce RTX 3080 Ti 	2208 	K
NVIDIA GeForce RTX 3080 	220A 	J
NVIDIA CMP 90HX 	220D 	K
NVIDIA GeForce RTX 3080 	2216 	K
NVIDIA GeForce RTX 3060 Ti 	2414 	K
NVIDIA GeForce RTX 3080 Ti Laptop GPU 	2420 	K
NVIDIA GeForce RTX 3080 Ti Laptop GPU 	2460 	K
NVIDIA GeForce RTX 3070 Ti 	2482 	K
NVIDIA GeForce RTX 3070 	2484 	K
NVIDIA GeForce RTX 3060 Ti 	2486 	K
NVIDIA GeForce RTX 3060 	2487 	K
NVIDIA GeForce RTX 3070 	2488 	K
NVIDIA GeForce RTX 3060 Ti 	2489 	K
NVIDIA CMP 70HX 	248A 	K
NVIDIA GeForce RTX 3080 Laptop GPU 	249C 	K
NVIDIA GeForce RTX 3060 Laptop GPU 	249C 1D05 1194 	K
NVIDIA GeForce RTX 3070 Laptop GPU 	249D 	K
NVIDIA GeForce RTX 3070 Ti Laptop GPU 	24A0 	K
NVIDIA GeForce RTX 3060 Laptop GPU 	24A0 1D05 1192 	K
NVIDIA GeForce RTX 3080 Laptop GPU 	24DC 	K
NVIDIA GeForce RTX 3070 Laptop GPU 	24DD 	K
NVIDIA GeForce RTX 3070 Ti Laptop GPU 	24E0 	K
NVIDIA GeForce RTX 3060 	2503 	K
NVIDIA GeForce RTX 3060 	2504 	K
NVIDIA GeForce RTX 3050 	2507 	K
NVIDIA GeForce RTX 3060 Laptop GPU 	2520 	K
NVIDIA GeForce RTX 3050 Ti Laptop GPU 	2523 	K
NVIDIA GeForce RTX 3060 Laptop GPU 	2560 	K
NVIDIA GeForce RTX 3050 Ti Laptop GPU 	2563 	K
NVIDIA GeForce RTX 3050 Ti Laptop GPU 	25A0 	K
NVIDIA GeForce RTX 3060 Laptop GPU 	25A0 1D05 1196 	K
NVIDIA GeForce RTX 3050 Laptop GPU 	25A2 	K
NVIDIA GeForce RTX 3050 Ti Laptop GPU 	25A2 1028 0BAF 	K
NVIDIA GeForce RTX 3060 Laptop GPU 	25A2 1D05 1195 	K
NVIDIA GeForce RTX 3050 Laptop GPU 	25A5 	K
NVIDIA GeForce MX570 	25A6 	K
NVIDIA GeForce RTX 2050 	25A7 	K
NVIDIA GeForce RTX 2050 	25A9 	K
NVIDIA GeForce RTX 3050 Ti Laptop GPU 	25E0 	K
NVIDIA GeForce RTX 3050 Laptop GPU 	25E2 	K
NVIDIA GeForce RTX 3050 Laptop GPU 	25E5 	K

Quadro K420 	0FF3 	D
Quadro K2000D 	0FF9 	D
Quadro K600 	0FFA 	D
Quadro K2000 	0FFE 	D
Quadro 410 	0FFF 	D
Quadro K6000 	103A 	D
Quadro K5200 	103C 	D
Quadro K4200 	11B4 	D
Quadro K5000 	11BA 	D
Quadro K4000 	11FA 	D
Quadro K620M 	137A 17AA 2225 	E
Quadro M500M 	137A 17AA 2232 	E
Quadro M500M 	137A 17AA 505A 	E
Quadro M520 	137B 	E
Quadro M2000M 	13B0 	E
Quadro M1000M 	13B1 	E
Quadro M600M 	13B2 	E
Quadro K2200M 	13B3 	E
Quadro M620 	13B4 	E
Quadro M1200 	13B6 	E
Quadro K2200 	13BA 	E
Quadro K620 	13BB 	E
Quadro K1200 	13BC 	E
Quadro M5000 	13F0 	E
Quadro M4000 	13F1 	E
Quadro M5000M 	13F8 	E
Quadro M5000 SE 	13F8 10DE 11DD 	E
Quadro M4000M 	13F9 	E
Quadro M3000M 	13FA 	E
Quadro M3000 SE 	13FA 10DE 11C9 	E
Quadro M5500 	13FB 	E
Quadro M2000 	1430 	F
Quadro M2200 	1436 	F
Quadro GP100 	15F0 	G
Quadro M6000 	17F0 	E
Quadro M6000 24GB 	17F1 	E
Quadro P6000 	1B30 	H
Quadro P5000 	1BB0 	H 2
Quadro P4000 	1BB1 	H 2
Quadro P5200 	1BB5 	H 2
Quadro P5200 with Max-Q Design 	1BB5 17AA 2268 	H 2
Quadro P5200 with Max-Q Design 	1BB5 17AA 2269 	H 2
Quadro P5000 	1BB6 	H 2
Quadro P4000 	1BB7 	H 2
Quadro P4000 with Max-Q Design 	1BB7 1462 11E9 	H 2
Quadro P4000 with Max-Q Design 	1BB7 1558 9501 	H 2
Quadro P3000 	1BB8 	H 2
Quadro P4200 	1BB9 	H 2
Quadro P4200 with Max-Q Design 	1BB9 1558 95E1 	H 2
Quadro P4200 with Max-Q Design 	1BB9 17AA 2268 	H 2
Quadro P4200 with Max-Q Design 	1BB9 17AA 2269 	H 2
Quadro P3200 	1BBB 	H 2
Quadro P3200 with Max-Q Design 	1BBB 17AA 225F 	H 2
Quadro P3200 with Max-Q Design 	1BBB 17AA 2262 	H 2
Quadro P2000 	1C30 	H
Quadro P2200 	1C31 	H
Quadro P1000 	1CB1 	H
Quadro P600 	1CB2 	H
Quadro P400 	1CB3 	H
Quadro P620 	1CB6 	H
Quadro P2000 	1CBA 	H
Quadro P2000 with Max-Q Design 	1CBA 17AA 2266 	H
Quadro P2000 with Max-Q Design 	1CBA 17AA 2267 	H
Quadro P1000 	1CBB 	H
Quadro P600 	1CBC 	H
Quadro P620 	1CBD 	H
Quadro P2000 	1CFA 	H
Quadro P1000 	1CFB 	H
Matrox D-Series D1480 	1CFB 102B 2600 	H
Matrox D-Series D1450 	1CFB 102B 2700 	H
Quadro P500 	1D33 	H
Quadro P520 	1D34 	H
Quadro GV100 	1DBA 	I
Quadro RTX 6000 	1E30 	J
Quadro RTX 8000 	1E30 1028 129E 	J
Quadro RTX 8000 	1E30 103C 129E 	J
Quadro RTX 8000 	1E30 10DE 129E 	J
Quadro RTX 6000 	1E36 	J
Quadro RTX 8000 	1E78 10DE 13D8 	J
Quadro RTX 6000 	1E78 10DE 13D9 	J
Quadro RTX 5000 	1EB0 	J
Quadro RTX 4000 	1EB1 	J
Quadro RTX 5000 	1EB5 	J
Quadro RTX 5000 with Max-Q Design 	1EB5 1025 1375 	J
Quadro RTX 5000 with Max-Q Design 	1EB5 1025 1401 	J
Quadro RTX 5000 with Max-Q Design 	1EB5 1025 149C 	J
Quadro RTX 5000 with Max-Q Design 	1EB5 1028 09C3 	J
Quadro RTX 5000 with Max-Q Design 	1EB5 103C 8736 	J
Quadro RTX 5000 with Max-Q Design 	1EB5 103C 8738 	J
Quadro RTX 5000 with Max-Q Design 	1EB5 103C 8772 	J
Quadro RTX 5000 with Max-Q Design 	1EB5 103C 8780 	J
Quadro RTX 5000 with Max-Q Design 	1EB5 103C 8782 	J
Quadro RTX 5000 with Max-Q Design 	1EB5 103C 8783 	J
Quadro RTX 5000 with Max-Q Design 	1EB5 103C 8785 	J
Quadro RTX 5000 with Max-Q Design 	1EB5 1043 1DD1 	J
Quadro RTX 5000 with Max-Q Design 	1EB5 1462 1274 	J
Quadro RTX 5000 with Max-Q Design 	1EB5 1462 12B0 	J
Quadro RTX 5000 with Max-Q Design 	1EB5 1462 12C6 	J
Quadro RTX 5000 with Max-Q Design 	1EB5 17AA 22B8 	J
Quadro RTX 5000 with Max-Q Design 	1EB5 17AA 22BA 	J
Quadro RTX 5000 with Max-Q Design 	1EB5 1A58 2005 	J
Quadro RTX 5000 with Max-Q Design 	1EB5 1A58 2007 	J
Quadro RTX 5000 with Max-Q Design 	1EB5 1A58 2008 	J
Quadro RTX 5000 with Max-Q Design 	1EB5 1A58 2009 	J
Quadro RTX 5000 with Max-Q Design 	1EB5 1A58 200A 	J
Quadro RTX 4000 	1EB6 	J
Quadro RTX 4000 with Max-Q Design 	1EB6 1028 09C3 	J
Quadro RTX 4000 with Max-Q Design 	1EB6 103C 8736 	J
Quadro RTX 4000 with Max-Q Design 	1EB6 103C 8738 	J
Quadro RTX 4000 with Max-Q Design 	1EB6 103C 8772 	J
Quadro RTX 4000 with Max-Q Design 	1EB6 103C 8780 	J
Quadro RTX 4000 with Max-Q Design 	1EB6 103C 8782 	J
Quadro RTX 4000 with Max-Q Design 	1EB6 103C 8783 	J
Quadro RTX 4000 with Max-Q Design 	1EB6 103C 8785 	J
Quadro RTX 4000 with Max-Q Design 	1EB6 1462 1274 	J
Quadro RTX 4000 with Max-Q Design 	1EB6 1462 1277 	J
Quadro RTX 4000 with Max-Q Design 	1EB6 1462 12B0 	J
Quadro RTX 4000 with Max-Q Design 	1EB6 1462 12C6 	J
Quadro RTX 4000 with Max-Q Design 	1EB6 17AA 22B8 	J
Quadro RTX 4000 with Max-Q Design 	1EB6 17AA 22BA 	J
Quadro RTX 5000 	1EF5 	J
Quadro RTX 3000 	1F36 	J
Quadro RTX 3000 with Max-Q Design 	1F36 1028 0990 	J
Quadro RTX 3000 with Max-Q Design 	1F36 103C 8736 	J
Quadro RTX 3000 with Max-Q Design 	1F36 103C 8738 	J
Quadro RTX 3000 with Max-Q Design 	1F36 103C 8772 	J
Quadro RTX 3000 with Max-Q Design 	1F36 1043 13CF 	J
Quadro RTX 3000 with Max-Q Design 	1F36 1414 0032 	J
Quadro RTX 3000 	1F76 	J
Matrox D-Series D2450 	1F76 102B 2800 	J
Matrox D-Series D2480 	1F76 102B 2900 	J
NVIDIA T1000 	1FB0 1028 12DB 	J
NVIDIA T1000 	1FB0 103C 12DB 	J
NVIDIA T1000 	1FB0 103C 8A80 	J
NVIDIA T1000 	1FB0 10DE 12DB 	J
NVIDIA DGX Display 	1FB0 10DE 1485 	J
NVIDIA T1000 	1FB0 17AA 12DB 	J
NVIDIA T600 	1FB1 1028 1488 	J
NVIDIA T600 	1FB1 103C 1488 	J
NVIDIA T600 	1FB1 103C 8A80 	J
NVIDIA T600 	1FB1 10DE 1488 	J
NVIDIA T600 	1FB1 15C3 1488 	J
NVIDIA T600 	1FB1 17AA 1488 	J
NVIDIA T400 	1FB2 1028 1489 	J
NVIDIA T400 	1FB2 103C 1489 	J
NVIDIA T400 	1FB2 103C 8A80 	J
NVIDIA T400 	1FB2 10DE 1489 	J
NVIDIA T400 	1FB2 15C3 1489 	J
NVIDIA T400 	1FB2 17AA 1489 	J
NVIDIA T600 Laptop GPU 	1FB6 	J
NVIDIA T550 Laptop GPU 	1FB7 	J
Quadro T2000 	1FB8 	J
Quadro T2000 with Max-Q Design 	1FB8 1028 097E 	J
Quadro T2000 with Max-Q Design 	1FB8 103C 8736 	J
Quadro T2000 with Max-Q Design 	1FB8 103C 8738 	J
Quadro T2000 with Max-Q Design 	1FB8 103C 8772 	J
Quadro T2000 with Max-Q Design 	1FB8 103C 8780 	J
Quadro T2000 with Max-Q Design 	1FB8 103C 8782 	J
Quadro T2000 with Max-Q Design 	1FB8 103C 8783 	J
Quadro T2000 with Max-Q Design 	1FB8 103C 8785 	J
Quadro T2000 with Max-Q Design 	1FB8 103C 87F0 	J
Quadro T2000 with Max-Q Design 	1FB8 1462 1281 	J
Quadro T2000 with Max-Q Design 	1FB8 1462 12BD 	J
Quadro T2000 with Max-Q Design 	1FB8 17AA 22C0 	J
Quadro T2000 with Max-Q Design 	1FB8 17AA 22C1 	J
Quadro T1000 	1FB9 	J
Quadro T1000 with Max-Q Design 	1FB9 1025 1479 	J
Quadro T1000 with Max-Q Design 	1FB9 1025 147A 	J
Quadro T1000 with Max-Q Design 	1FB9 1025 147B 	J
Quadro T1000 with Max-Q Design 	1FB9 1025 147C 	J
Quadro T1000 with Max-Q Design 	1FB9 103C 8736 	J
Quadro T1000 with Max-Q Design 	1FB9 103C 8738 	J
Quadro T1000 with Max-Q Design 	1FB9 103C 8772 	J
Quadro T1000 with Max-Q Design 	1FB9 103C 8780 	J
Quadro T1000 with Max-Q Design 	1FB9 103C 8782 	J
Quadro T1000 with Max-Q Design 	1FB9 103C 8783 	J
Quadro T1000 with Max-Q Design 	1FB9 103C 8785 	J
Quadro T1000 with Max-Q Design 	1FB9 103C 87F0 	J
Quadro T1000 with Max-Q Design 	1FB9 1462 12BD 	J
Quadro T1000 with Max-Q Design 	1FB9 17AA 22C0 	J
Quadro T1000 with Max-Q Design 	1FB9 17AA 22C1 	J
NVIDIA T600 Laptop GPU 	1FBA 	J
NVIDIA T500 	1FBB 	J
NVIDIA T1200 Laptop GPU 	1FBC 	J
NVIDIA T1000 8GB 	1FF0 1028 1612 	J
NVIDIA T1000 8GB 	1FF0 103C 1612 	J
NVIDIA T1000 8GB 	1FF0 10DE 1612 	J
NVIDIA T1000 8GB 	1FF0 17AA 1612 	J
NVIDIA T400 4GB 	1FF2 1028 1613 	J
NVIDIA T400 4GB 	1FF2 103C 1613 	J
NVIDIA T400 4GB 	1FF2 10DE 1613 	J
NVIDIA T400 4GB 	1FF2 17AA 1613 	J
Quadro T1000 	1FF9 	J
NVIDIA PG506-232 	20B6 10DE 1492 	J
NVIDIA A30 	20B7 10DE 1532 	J
NVIDIA RTX A6000 	2230 10DE 1459 	K
NVIDIA RTX A5000 	2231 10DE 147E 	K
NVIDIA RTX A4500 	2232 1028 163C 	K
NVIDIA RTX A4500 	2232 103C 163C 	K
NVIDIA RTX A4500 	2232 10DE 163C 	K
NVIDIA RTX A4500 	2232 17AA 163C 	K
NVIDIA A40 	2235 10DE 145A 	K
NVIDIA A10 	2236 10DE 1482 	K
NVIDIA A10G 	2237 10DE 152F 	K
NVIDIA RTX A5500 Laptop GPU 	2438 	K
NVIDIA RTX A4000 	24B0 10DE 14AD 	K
NVIDIA RTX A5000 Laptop GPU 	24B6 	K
NVIDIA RTX A4000 Laptop GPU 	24B7 	K
NVIDIA RTX A3000 Laptop GPU 	24B8 	K
NVIDIA RTX A3000 12GB Laptop GPU 	24B9 	K
NVIDIA RTX A4500 Laptop GPU 	24BA 	K
NVIDIA RTX A3000 12GB Laptop GPU 	24BB 	K
NVIDIA RTX A4500 Embedded GPU 	24FA 	K
NVIDIA RTX A2000 	2531 10DE 151D 	K
NVIDIA RTX A2000 12GB 	2571 1028 1611 	K
NVIDIA RTX A2000 12GB 	2571 103C 1611 	K
NVIDIA RTX A2000 12GB 	2571 10DE 1611 	K
NVIDIA RTX A2000 12GB 	2571 17AA 1611 	K
NVIDIA A16 	25B6 10DE 14A9 	K
NVIDIA A2 	25B6 10DE 157E 	K
NVIDIA RTX A2000 Laptop GPU 	25B8 	K
NVIDIA RTX A1000 Laptop GPU 	25B9 	K
NVIDIA RTX A2000 8GB Laptop GPU 	25BA 	K
NVIDIA RTX A500 Laptop GPU 	25BB 	K
NVIDIA RTX A1000 Embedded GPU 	25F9 	K
NVIDIA RTX A2000 Embedded GPU 	25FA 	K

NVS 510 	0FFD 	D
NVS 810 	13B9 	E

Tesla K20Xm 	1021 	D
Tesla K20c 	1022 	D
Tesla K40m 	1023 	D
Tesla K40c 	1024 	D
Tesla K20s 	1026 	D
Tesla K40st 	1027 	D
Tesla K20m 	1028 	D
Tesla K40s 	1029 	D
Tesla K40t 	102A 	D
Tesla K80 	102D 	D
Tesla K10 	118F 	D
Tesla K8 	1194 	D
Tesla M60 	13F2 	E
Tesla M6 	13F3 	E
Tesla M4 	1431 	F
Tesla P100-PCIE-12GB 	15F7 	G
Tesla P100-PCIE-16GB 	15F8 	G
Tesla P100-SXM2-16GB 	15F9 	G
Tesla M40 	17FD 	E
Tesla M40 24GB 	17FD 10DE 1173 	E
Tesla P40 	1B38 	H
Tesla P4 	1BB3 	H 2
Tesla P6 	1BB4 	H 2
Tesla V100-SXM2-16GB 	1DB1 	I
Tesla V100-SXM2-16GB-LS 	1DB1 10DE 1307 	I
Tesla V100-FHHL-16GB 	1DB3 	I
Tesla V100-PCIE-16GB 	1DB4 	I
Tesla V100-PCIE-16GB-LS 	1DB4 10DE 1306 	I
Tesla V100-SXM2-32GB 	1DB5 	I
Tesla V100-SXM2-32GB-LS 	1DB5 10DE 1308 	I
Tesla V100-PCIE-32GB 	1DB6 	I
Tesla V100-DGXS-32GB 	1DB7 	I
Tesla V100-SXM3-32GB 	1DB8 	I
Tesla V100-SXM3-32GB-H 	1DB8 10DE 131D 	I
Tesla PG500-216 	1DF0 	I
Tesla PG503-216 	1DF2 	I
Tesla V100-SXM2-16GB 	1DF5 	I
Tesla V100S-PCIE-32GB 	1DF6 	I
NVIDIA T4G 	1EB4 10DE 157D 	J
Tesla T4 	1EB8 	J
NVIDIA A100-SXM4-40GB 	20B0 	J
NVIDIA A100-PG509-200 	20B0 10DE 1450 	J
NVIDIA A100-PCIE-40GB 	20B1 10DE 145F 	J
NVIDIA A100-SXM4-80GB 	20B2 10DE 1463 	J
NVIDIA A100-SXM4-80GB 	20B2 10DE 147F 	J
NVIDIA PG509-210 	20B2 10DE 1625 	J
NVIDIA PG506-242 	20B3 10DE 14A7 	J
NVIDIA PG506-243 	20B3 10DE 14A8 	J
NVIDIA A100 80GB PCIe 	20B5 10DE 1533 	J
NVIDIA A100-PG506-207 	20F0 10DE 1583 	J
NVIDIA A100-PCIE-40GB 	20F1 10DE 145F 	J
NVIDIA A100-PG506-217 	20F2 10DE 1584 	J

GRID K520 	118A 	D
